﻿{
  "$schema": "http://json-schema.org/schemas/2014-11-01/apiapp.json#",
  "id": "Escola4RodasTecnologia.EscolaApi",
  "namespace": "microsoft.com",
  "gateway": "2015-01-14",
  "version": "1.0.0",
  "title": "Escola4RodasTecnologia.EscolaApi",
  "summary": "",
  "author": "",
  "endpoints": {
    "apiDefinition": "/swagger/docs/v1",
    "status": null
  }
}